[
    {
        "name": "Silvio Berlusconi"
    },
    {
        "name": "Barrack Obama"
    },
    {
        "name": "Georges W. Bush"
    },
    {
        "name": "Dominique Strauss-Kahn"
    },
    {
        "name": "Margareth Tatcher"
    },
    {
        "name": "Zinedine Zidane"
    },
    {
        "name": "Angélina Jolie"
    },
    {
        "name": "Brigitte Bardot"
    },
    {
        "name": "Gérard Depardieu"
    },
    {
        "name": "Le Dalaï-Lama"
    },
    {
        "name": "Vladimir Poutine"
    },
    {
        "name": "Séréna Williams"
    },
    {
        "name": "Usain Bolt"
    },
    {
        "name": "Oscar Pistorius"
    },
    {
        "name": "Steven Spielberg"
    },
    {
        "name": "Madonna"
    },
    {
        "name": "Michaël Jackson"
    },
    {
        "name": "Ray Charles"
    },
    {
        "name": "Céline Dion"
    },
    {
        "name": "Elisabeth II"
    },
    {
        "name": "Jean-Paul II"
    },
    {
        "name": "Chuck Norris"
    },
    {
        "name": "Bill Gates"
    },
    {
        "name": "Steven Hawking"
    },
    {
        "name": "Mère Teresa"
    },
    {
        "name": "Napoléon Bonaparte"
    },
    {
        "name": "Robespierre"
    },
    {
        "name": "Louise Michel"
    },
    {
        "name": "Gustave Eiffel"
    },
    {
        "name": "Victor Hugo"
    },
    {
        "name": "Vincent van Gogh"
    },
    {
        "name": "Hans Christian Andersen"
    },
    {
        "name": "Oscar Wilde"
    },
    {
        "name": "Abraham Lincoln"
    },
    {
        "name": "Karl Marx"
    },
    {
        "name": "Victoria D'Angleterre"
    },
    {
        "name": "Géronimo"
    },
    {
        "name": "Charles Darwin"
    },
    {
        "name": "Louis Pasteur"
    },
    {
        "name": "Louis Braille"
    },
    {
        "name": "George Washington"
    },
    {
        "name": "Molière"
    },
    {
        "name": "Léonard de Vinci"
    },
    {
        "name": "William Shakespeare"
    },
    {
        "name": "W.A Mozart"
    },
    {
        "name": "Nicolas Machiavel"
    },
    {
        "name": "Nostradamus"
    },
    {
        "name": "Anne Bonny"
    },
    {
        "name": "Louis XIV"
    },
    {
        "name": "Catherine de Medicis"
    },
    {
        "name": "Henri VIII Tudor"
    },
    {
        "name": "Jean Calvin"
    },
    {
        "name": "Galilée"
    },
    {
        "name": "Isaac Newton"
    },
    {
        "name": "Gutenberg"
    },
    {
        "name": "Christophe Colomb"
    },
    {
        "name": "Dante Aligheri"
    },
    {
        "name": "Jeanne d'Arc"
    },
    {
        "name": "Marco Polo"
    },
    {
        "name": "Charlemagne"
    },
    {
        "name": "Clovis"
    },
    {
        "name": "Genghis Khan"
    },
    {
        "name": "Mahomet"
    },
    {
        "name": "Erik le Rouge"
    },
    {
        "name": "Jules César"
    },
    {
        "name": "Attila"
    },
    {
        "name": "Diogène"
    },
    {
        "name": "Spartacus"
    },
    {
        "name": "Crésus"
    },
    {
        "name": "Cléopatre"
    },
    {
        "name": "Alexandre \"Le Grand\""
    },
    {
        "name": "Néron"
    },
    {
        "name": "Vercingétorix"
    },
    {
        "name": "Jésus de Nazareth"
    },
    {
        "name": "Bouddha"
    },
    {
        "name": "Tintin"
    },
    {
        "name": "Le Capitaine Haddock"
    },
    {
        "name": "Astérix"
    },
    {
        "name": "Lucky Luke"
    },
    {
        "name": "Calamity Jane"
    },
    {
        "name": "La Schtroumpfette"
    },
    {
        "name": "Gaston Lagaffe"
    },
    {
        "name": "Ali Baba"
    },
    {
        "name": "Cendrillon"
    },
    {
        "name": "Blanche-Neige"
    },
    {
        "name": "Pinocchio"
    },
    {
        "name": "Catwoman"
    },
    {
        "name": "La Fée Clochette"
    },
    {
        "name": "Sherlock Holmes"
    },
    {
        "name": "Le Roi Arthur"
    },
    {
        "name": "Robin des Bois"
    },
    {
        "name": "Harry Potter"
    },
    {
        "name": "Batman"
    },
    {
        "name": "Indiana Jones"
    },
    {
        "name": "D'Artagnan"
    },
    {
        "name": "James Bond"
    },
    {
        "name": "Tarzan"
    },
    {
        "name": "Winston Churchill"
    },
    {
        "name": "Charles de Gaulle"
    },
    {
        "name": "Jacques Chirac"
    },
    {
        "name": "Benito Mussolini"
    },
    {
        "name": "Al Capone"
    },
    {
        "name": "Jack L'Eventreur"
    },
    {
        "name": "Adolf Hitler"
    },
    {
        "name": "Joseph Staline"
    },
    {
        "name": "J.F. Kennedy"
    },
    {
        "name": "Martin Luther King"
    },
    {
        "name": "Che Guevara"
    },
    {
        "name": "Gandhi"
    },
    {
        "name": "Albert Einstein"
    },
    {
        "name": "Marie Curie"
    },
    {
        "name": "Alan Turing"
    },
    {
        "name": "Sigmeund Freud"
    },
    {
        "name": "Maradona"
    },
    {
        "name": "Mohamed Ali"
    },
    {
        "name": "Princesse Leïa",
        "source": "Starwars"
    },
    {
        "name": "Pamela Anderson"
    },
    {
        "name": "John Lennon"
    },
    {
        "name": "Marilyn Monroe"
    },
    {
        "name": "La petite Sirène"
    },
    {
        "name": "Brad Pitt"
    },
    {
        "name": "Neil Armstrong"
    },
    {
        "name": "Pablo Picasso"
    },
    {
        "name": "Ulysse"
    },
    {
        "name": "Achille"
    },
    {
        "name": "Le Père Noël"
    },
    {
        "name": "Picsou"
    },
    {
        "name": "Anne Frank"
    },
    {
        "name": "Johnny Depp"
    },
    {
        "name": "Vanessa Paradis"
    },
    {
        "name": "Elvis Presley"
    },
    {
        "name": "Jean-Claude Van Damme"
    },
    {
        "name": "Louis de Funès"
    },
    {
        "name": "Yoda",
        "source": "Starwars"
    },
    {
        "name": "Ayrton Senna"
    },
    {
        "name": "Robinson Crusoé"
    },
    {
        "name": "Peter Pan"
    },
    {
        "name": "Don Quichotte"
    },
    {
        "name": "Charlie Chaplin"
    },
    {
        "name": "Hercules"
    },
    {
        "name": "Moïse"
    },
    {
        "name": "Noé"
    },
    {
        "name": "Mario Bros"
    },
    {
        "name": "Merlin"
    },
    {
        "name": "Bob Marley"
    },
    {
        "name": "Jules Vernes"
    },
    {
        "name": "Alfred Hitchcock"
    },
    {
        "name": "Agatha Christie"
    },
    {
        "name": "Don Juan"
    },
    {
        "name": "Hélène de Troie"
    },
    {
        "name": "Lady Di"
    },
    {
        "name": "Claude François"
    },
    {
        "name": "Dark Vador",
        "source": "Starwars"
    },
    {
        "name": "Le Joker",
        "source": "Batman"
    },
    {
        "name": "Le Diable"
    }
]
